XDMA_SSI/.Xil/Vivado-5296-DESKTOP-VQGIJDC/hw_ila_data_3/zip_work/waveform.vcd
$date
        2025-Sep-28 16:05:37
$end
$version
        Vivado v2022.1 (64-bit)
$end
$timescale
        1ps
$end
$scope module dut $end
$var reg 16 " SSI_interface_ins/rev_cnt [15:0] $end
$var reg 21 2 SSI_interface_ins/nop_cnt [20:0] $end
$var reg 3 G SSI_interface_ins/rx_state [2:0] $end
$var reg 16 J SSI_interface_ins/rate_cnt [15:0] $end
$var reg 13 Z SSI_interface_ins/scl_cnt [12:0] $end
$var reg 6 g SSI_interface_ins/bit_cnt [5:0] $end
$var reg 9 m addr_b [11:3] $end
$var reg 29 v addr_s [28:0] $end
$var reg 32 5" data_all [31:0] $end
$var reg 24 U" data_out [23:0] $end
$var reg 64 m" din_b [63:0] $end
$var reg 64 O# din_s [63:0] $end
$var reg 64 1$ dout_b [63:0] $end
$var reg 64 q$ dout_s [63:0] $end
$var reg 64 S% din_reg [63:0] $end
$var reg 4 5& reg_cnt [3:0] $end
$var reg 3 9& irq_state0 [2:0] $end
$var reg 3 <& single_sample [2:0] $end
$var reg 3 ?& irq_state1 [2:0] $end
$var reg 3 B& irq_ack [2:0] $end
$var reg 8 E& wen_b [7:0] $end
$var reg 8 M& wen_s [7:0] $end
$var reg 1 U& clear_int_en $end
$var reg 1 V& cs_1 $end
$var reg 1 W& cs_en $end
$var reg 1 X& data_acq_en $end
$var reg 1 Y& data_flag $end
$var reg 1 Z& en_b $end
$var reg 1 [& en_s $end
$var reg 1 \& en_s1 $end
$var reg 1 ]& ping_pang_sel $end
$var reg 1 ^& r_rst $end
$var reg 1 _& req_0 $end
$var reg 1 `& req_1 $end
$var reg 1 a& sclk1 $end
$var reg 1 b& sda1 $end
$var reg 1 c& Sda_ctrl $end
$var reg 1 d& nolabel_line85/stat_cs $end
$var reg 1 e& nolabel_line85/stat_data $end
$var reg 1 f& nolabel_line85/stat_scl $end
$var reg 1 g& nolabel_line85/stop_cs $end
$var reg 1 h& nolabel_line85/stop_data $end
$var reg 1 i& nolabel_line85/stop_scl $end
$var reg 1 j& usr_irq_ack $end
$var reg 1 k& usr_irq_req $end
$var reg 1 l& _TRIGGER $end
$var reg 1 m& _WINDOW $end
$var reg 1 n& _GAP $end
$upscope $end
$enddefinitions $end
#0
$dumpvars
b0 "
b0 2
b11 G
b0 J
b10 Z
b1011 g
b0 m
b0 v
b101111001001000000000000010010 5"
b101111001001000000010010 U"
b1 m"
b0 O#
b0 1$
b0 q$
b0 S%
b0 5&
b0 9&
b0 <&
b0 ?&
b0 B&
b0 E&
b11111111 M&
0U&
0V&
1W&
0X&
0Y&
0Z&
0[&
0\&
0]&
0^&
0_&
0`&
0a&
1b&
1c&
0d&
0e&
0f&
0g&
0h&
0i&
0j&
0k&
0l&
1m&
0n&
$end
#1
b11 Z
#2
b100 Z
#3
b101 Z
b1100 g
#4
b110 Z
#5
b111 Z
#6
b1000 Z
#7
b1001 Z
#8
b1010 Z
#9
b1011 Z
#10
b0 Z
#11
b1 Z
#12
b10 Z
1a&
#13
b11 Z
#14
b100 Z
#15
b101 Z
#16
b110 Z
0b&
#17
b111 Z
#18
b1000 Z
#19
b1001 Z
#20
b1010 Z
#21
b1011 Z
#22
b0 Z
#23
b1 Z
#24
b10 Z
0a&
#25
b11 Z
#26
b100 Z
#27
b101 Z
b1101 g
#28
b110 Z
#29
b111 Z
#30
b1000 Z
#31
b1001 Z
#32
b1010 Z
#33
b1011 Z
#34
b0 Z
#35
b1 Z
#36
b10 Z
1a&
#37
b11 Z
#38
b100 Z
#39
b101 Z
#40
b110 Z
#41
b111 Z
#42
b1000 Z
#43
b1001 Z
#44
b1010 Z
#45
b1011 Z
#46
b0 Z
#47
b1 Z
#48
b10 Z
0a&
#49
b11 Z
#50
b100 Z
#51
b101 Z
b1110 g
#52
b110 Z
#53
b111 Z
#54
b1000 Z
#55
b1001 Z
#56
b1010 Z
#57
b1011 Z
#58
b0 Z
#59
b1 Z
#60
b10 Z
1a&
#61
b11 Z
#62
b100 Z
#63
b101 Z
#64
b110 Z
#65
b111 Z
#66
b1000 Z
#67
b1001 Z
#68
b1010 Z
#69
b1011 Z
#70
b0 Z
#71
b1 Z
#72
b10 Z
0a&
#73
b11 Z
#74
b100 Z
#75
b101 Z
b1111 g
#76
b110 Z
#77
b111 Z
#78
b1000 Z
#79
b1001 Z
#80
b1010 Z
#81
b1011 Z
#82
b0 Z
#83
b1 Z
#84
b10 Z
1a&
#85
b11 Z
#86
b100 Z
#87
b101 Z
#88
b110 Z
#89
b111 Z
#90
b1000 Z
#91
b1001 Z
#92
b1010 Z
#93
b1011 Z
#94
b0 Z
#95
b1 Z
#96
b10 Z
0a&
#97
b11 Z
#98
b100 Z
#99
b101 Z
b10000 g
#100
b110 Z
#101
b111 Z
#102
b1000 Z
#103
b1001 Z
#104
b1010 Z
#105
b1011 Z
#106
b0 Z
#107
b1 Z
#108
b10 Z
1a&
#109
b11 Z
#110
b100 Z
#111
b101 Z
#112
b110 Z
#113
b111 Z
#114
b1000 Z
#115
b1001 Z
#116
b1010 Z
#117
b1011 Z
#118
b0 Z
#119
b1 Z
#120
b10 Z
0a&
#121
b11 Z
#122
b100 Z
#123
b101 Z
b10001 g
#124
b110 Z
#125
b111 Z
#126
b1000 Z
#127
b1001 Z
#128
b1010 Z
#129
b1011 Z
#130
b0 Z
#131
b1 Z
#132
b10 Z
1a&
#133
b11 Z
#134
b100 Z
#135
b101 Z
#136
b110 Z
#137
b111 Z
#138
b1000 Z
#139
b1001 Z
#140
b1010 Z
#141
b1011 Z
#142
b0 Z
#143
b1 Z
#144
b10 Z
0a&
#145
b11 Z
#146
b100 Z
#147
b101 Z
b10010 g
#148
b110 Z
#149
b111 Z
#150
b1000 Z
#151
b1001 Z
#152
b1010 Z
#153
b1011 Z
#154
b0 Z
#155
b1 Z
#156
b10 Z
1a&
#157
b11 Z
#158
b100 Z
#159
b101 Z
#160
b110 Z
#161
b111 Z
#162
b1000 Z
#163
b1001 Z
#164
b1010 Z
#165
b1011 Z
#166
b0 Z
#167
b1 Z
#168
b10 Z
0a&
#169
b11 Z
#170
b100 Z
#171
b101 Z
b10011 g
#172
b110 Z
#173
b111 Z
#174
b1000 Z
#175
b1001 Z
#176
b1010 Z
#177
b1011 Z
#178
b0 Z
#179
b1 Z
#180
b10 Z
1a&
#181
b11 Z
#182
b100 Z
#183
b101 Z
1b&
#184
b110 Z
#185
b111 Z
#186
b1000 Z
#187
b1001 Z
#188
b1010 Z
#189
b1011 Z
#190
b0 Z
#191
b1 Z
#192
b10 Z
0a&
#193
b11 Z
#194
b100 Z
#195
b101 Z
b10100 g
#196
b110 Z
#197
b111 Z
#198
b1000 Z
#199
b1001 Z
#200
b1010 Z
#201
b1011 Z
#202
b0 Z
#203
b1 Z
#204
b10 Z
1a&
#205
b11 Z
#206
b100 Z
#207
b101 Z
#208
b110 Z
0b&
#209
b111 Z
#210
b1000 Z
#211
b1001 Z
#212
b1010 Z
#213
b1011 Z
#214
b0 Z
#215
b1 Z
#216
b10 Z
0a&
#217
b11 Z
#218
b100 Z
#219
b101 Z
b10101 g
#220
b110 Z
#221
b111 Z
#222
b1000 Z
#223
b1001 Z
#224
b1010 Z
#225
b1011 Z
#226
b0 Z
#227
b1 Z
#228
b10 Z
1a&
#229
b11 Z
#230
b100 Z
#231
b101 Z
#232
b110 Z
#233
b111 Z
#234
b1000 Z
#235
b1001 Z
#236
b1010 Z
#237
b1011 Z
#238
b0 Z
#239
b1 Z
#240
b10 Z
0a&
#241
b11 Z
#242
b100 Z
#243
b101 Z
b10110 g
#244
b110 Z
#245
b111 Z
#246
b1000 Z
#247
b1001 Z
#248
b1010 Z
#249
b1011 Z
#250
b0 Z
#251
b1 Z
#252
b10 Z
1a&
#253
b11 Z
#254
b100 Z
#255
b101 Z
1b&
#256
b110 Z
#257
b111 Z
#258
b1000 Z
#259
b1001 Z
#260
b1010 Z
#261
b1011 Z
#262
b0 Z
#263
b1 Z
#264
b10 Z
0a&
#265
b11 Z
#266
b100 Z
#267
b101 Z
b10111 g
#268
b110 Z
#269
b111 Z
#270
b1000 Z
#271
b1001 Z
#272
b1010 Z
#273
b1011 Z
#274
b0 Z
#275
b1 Z
#276
b10 Z
1a&
#277
b11 Z
#278
b100 Z
#279
b101 Z
#280
b110 Z
0b&
#281
b111 Z
#282
b1000 Z
#283
b1001 Z
#284
b1010 Z
#285
b1011 Z
#286
b0 Z
#287
b1 Z
#288
b10 Z
0a&
#289
b11 Z
#290
b100 Z
#291
b101 Z
b11000 g
#292
b100 G
b110 Z
#293
b1 2
b0 Z
b0 g
#294
b10 2
#295
b11 2
1Y&
#296
b100 2
0Y&
#297
b101 2
#298
b110 2
#299
b111 2
#300
b1000 2
#301
b1001 2
#302
b1010 2
#303
b1011 2
#304
b1100 2
b0 G
#305
b0 2
b1 J
1V&
#306
b10 J
#307
b11 J
#308
b100 J
#309
b101 J
#310
b110 J
#311
b111 J
#312
b1000 J
#313
b1001 J
#314
b1010 J
#315
b1011 J
#316
b1100 J
#317
b1101 J
#318
b1110 J
#319
b1111 J
#320
b10000 J
#321
b10001 J
#322
b10010 J
#323
b10011 J
#324
b10100 J
#325
b10101 J
#326
b10110 J
#327
b10111 J
#328
b11000 J
1b&
#329
b11001 J
#330
b11010 J
#331
b11011 J
#332
b11100 J
#333
b11101 J
#334
b11110 J
#335
b11111 J
#336
b100000 J
#337
b100001 J
#338
b100010 J
#339
b100011 J
#340
b100100 J
#341
b100101 J
#342
b100110 J
#343
b100111 J
#344
b101000 J
#345
b101001 J
#346
b101010 J
#347
b101011 J
#348
b101100 J
#349
b101101 J
#350
b101110 J
#351
b101111 J
#352
b110000 J
#353
b110001 J
#354
b110010 J
#355
b110011 J
#356
b110100 J
#357
b110101 J
#358
b110110 J
#359
b110111 J
#360
b111000 J
#361
b111001 J
#362
b111010 J
#363
b111011 J
#364
b111100 J
#365
b111101 J
#366
b111110 J
#367
b111111 J
#368
b1000000 J
#369
b1000001 J
#370
b1000010 J
#371
b1000011 J
#372
b1000100 J
#373
b1000101 J
#374
b1000110 J
#375
b1000111 J
#376
b1001000 J
#377
b1001001 J
#378
b1001010 J
#379
b1001011 J
#380
b1001100 J
#381
b1001101 J
#382
b1001110 J
#383
b1001111 J
#384
b1010000 J
#385
b1010001 J
#386
b1010010 J
#387
b1010011 J
#388
b1010100 J
#389
b1010101 J
#390
b1010110 J
#391
b1010111 J
#392
b1011000 J
#393
b1011001 J
#394
b1011010 J
#395
b1011011 J
#396
b1011100 J
#397
b1011101 J
#398
b1011110 J
#399
b1011111 J
#400
b1100000 J
#401
b1100001 J
#402
b1100010 J
#403
b1100011 J
#404
b1100100 J
#405
b1 G
b1100101 J
#406
b1 "
b0 J
0V&
#407
b10 "
#408
b11 "
#409
b100 "
#410
b101 "
#411
b110 "
#412
b111 "
#413
b1000 "
#414
b1001 "
#415
b1010 "
#416
b1011 "
#417
b1100 "
#418
b1101 "
b11 G
#419
b0 "
b1 Z
#420
b10 Z
1a&
#421
b11 Z
#422
b100 Z
#423
b101 Z
#424
b110 Z
#425
b111 Z
#426
b1000 Z
#427
b1001 Z
#428
b1010 Z
#429
b1011 Z
#430
b0 Z
#431
b1 Z
#432
b10 Z
0a&
#433
b11 Z
#434
b100 Z
#435
b101 Z
b1 g
#436
b110 Z
#437
b111 Z
#438
b1000 Z
#439
b1001 Z
#440
b1010 Z
#441
b1011 Z
#442
b0 Z
#443
b1 Z
#444
b10 Z
1a&
#445
b11 Z
#446
b100 Z
#447
b101 Z
#448
b110 Z
0b&
#449
b111 Z
#450
b1000 Z
#451
b1001 Z
#452
b1010 Z
#453
b1011 Z
#454
b0 Z
#455
b1 Z
#456
b10 Z
0a&
#457
b11 Z
#458
b100 Z
#459
b101 Z
b10 g
#460
b110 Z
#461
b111 Z
#462
b1000 Z
#463
b1001 Z
#464
b1010 Z
#465
b1011 Z
#466
b0 Z
#467
b1 Z
#468
b10 Z
1a&
#469
b11 Z
#470
b100 Z
#471
b101 Z
1b&
#472
b110 Z
#473
b111 Z
#474
b1000 Z
#475
b1001 Z
#476
b1010 Z
#477
b1011 Z
#478
b0 Z
#479
b1 Z
#480
b10 Z
0a&
#481
b11 Z
#482
b100 Z
#483
b101 Z
b11 g
#484
b110 Z
#485
b111 Z
#486
b1000 Z
#487
b1001 Z
#488
b1010 Z
#489
b1011 Z
#490
b0 Z
#491
b1 Z
#492
b10 Z
1a&
#493
b11 Z
#494
b100 Z
#495
b101 Z
#496
b110 Z
#497
b111 Z
#498
b1000 Z
#499
b1001 Z
#500
b1010 Z
#501
b1011 Z
#502
b0 Z
#503
b1 Z
#504
b10 Z
0a&
#505
b11 Z
#506
b100 Z
#507
b101 Z
b100 g
#508
b110 Z
#509
b111 Z
#510
b1000 Z
#511
b1001 Z
#512
b1010 Z
#513
b1011 Z
#514
b0 Z
#515
b1 Z
#516
b10 Z
1a&
#517
b11 Z
#518
b100 Z
#519
b101 Z
#520
b110 Z
#521
b111 Z
#522
b1000 Z
#523
b1001 Z
#524
b1010 Z
#525
b1011 Z
#526
b0 Z
#527
b1 Z
#528
b10 Z
0a&
#529
b11 Z
#530
b100 Z
#531
b101 Z
b101 g
#532
b110 Z
#533
b111 Z
#534
b1000 Z
#535
b1001 Z
#536
b1010 Z
#537
b1011 Z
#538
b0 Z
#539
b1 Z
#540
b10 Z
1a&
#541
b11 Z
#542
b100 Z
#543
b101 Z
#544
b110 Z
#545
b111 Z
#546
b1000 Z
#547
b1001 Z
#548
b1010 Z
#549
b1011 Z
#550
b0 Z
#551
b1 Z
#552
b10 Z
0a&
#553
b11 Z
#554
b100 Z
#555
b101 Z
b110 g
#556
b110 Z
#557
b111 Z
#558
b1000 Z
#559
b1001 Z
#560
b1010 Z
#561
b1011 Z
#562
b0 Z
#563
b1 Z
#564
b10 Z
1a&
#565
b11 Z
#566
b100 Z
#567
b101 Z
#568
b110 Z
0b&
#569
b111 Z
#570
b1000 Z
#571
b1001 Z
#572
b1010 Z
#573
b1011 Z
#574
b0 Z
#575
b1 Z
#576
b10 Z
0a&
#577
b11 Z
#578
b100 Z
#579
b101 Z
b111 g
#580
b110 Z
#581
b111 Z
#582
b1000 Z
#583
b1001 Z
#584
b1010 Z
#585
b1011 Z
#586
b0 Z
#587
b1 Z
#588
b10 Z
1a&
#589
b11 Z
#590
b100 Z
#591
b101 Z
#592
b110 Z
#593
b111 Z
#594
b1000 Z
#595
b1001 Z
#596
b1010 Z
#597
b1011 Z
#598
b0 Z
#599
b1 Z
#600
b10 Z
0a&
#601
b11 Z
#602
b100 Z
#603
b101 Z
b1000 g
#604
b110 Z
#605
b111 Z
#606
b1000 Z
#607
b1001 Z
#608
b1010 Z
#609
b1011 Z
#610
b0 Z
#611
b1 Z
#612
b10 Z
1a&
#613
b11 Z
#614
b100 Z
#615
b101 Z
1b&
#616
b110 Z
#617
b111 Z
#618
b1000 Z
#619
b1001 Z
#620
b1010 Z
#621
b1011 Z
#622
b0 Z
#623
b1 Z
#624
b10 Z
0a&
#625
b11 Z
#626
b100 Z
#627
b101 Z
b1001 g
#628
b110 Z
#629
b111 Z
#630
b1000 Z
#631
b1001 Z
#632
b1010 Z
#633
b1011 Z
#634
b0 Z
#635
b1 Z
#636
b10 Z
1a&
#637
b11 Z
#638
b100 Z
#639
b101 Z
#640
b110 Z
0b&
#641
b111 Z
#642
b1000 Z
#643
b1001 Z
#644
b1010 Z
#645
b1011 Z
#646
b0 Z
#647
b1 Z
#648
b10 Z
0a&
#649
b11 Z
#650
b100 Z
#651
b101 Z
b1010 g
#652
b110 Z
#653
b111 Z
#654
b1000 Z
#655
b1001 Z
#656
b1010 Z
#657
b1011 Z
#658
b0 Z
#659
b1 Z
#660
b10 Z
1a&
#661
b11 Z
#662
b100 Z
#663
b101 Z
#664
b110 Z
#665
b111 Z
#666
b1000 Z
#667
b1001 Z
#668
b1010 Z
#669
b1011 Z
#670
b0 Z
#671
b1 Z
#672
b10 Z
0a&
#673
b11 Z
#674
b100 Z
#675
b101 Z
b1011 g
#676
b110 Z
#677
b111 Z
#678
b1000 Z
#679
b1001 Z
#680
b1010 Z
#681
b1011 Z
#682
b0 Z
#683
b1 Z
#684
b10 Z
1a&
#685
b11 Z
#686
b100 Z
#687
b101 Z
1b&
#688
b110 Z
#689
b111 Z
#690
b1000 Z
#691
b1001 Z
#692
b1010 Z
#693
b1011 Z
#694
b0 Z
#695
b1 Z
#696
b10 Z
0a&
#697
b11 Z
#698
b100 Z
#699
b101 Z
b1100 g
#700
b110 Z
#701
b111 Z
#702
b1000 Z
#703
b1001 Z
#704
b1010 Z
#705
b1011 Z
#706
b0 Z
#707
b1 Z
#708
b10 Z
1a&
#709
b11 Z
#710
b100 Z
#711
b101 Z
#712
b110 Z
0b&
#713
b111 Z
#714
b1000 Z
#715
b1001 Z
#716
b1010 Z
#717
b1011 Z
#718
b0 Z
#719
b1 Z
#720
b10 Z
0a&
#721
b11 Z
#722
b100 Z
#723
b101 Z
b1101 g
#724
b110 Z
#725
b111 Z
#726
b1000 Z
#727
b1001 Z
#728
b1010 Z
#729
b1011 Z
#730
b0 Z
#731
b1 Z
#732
b10 Z
1a&
#733
b11 Z
#734
b100 Z
#735
b101 Z
#736
b110 Z
#737
b111 Z
#738
b1000 Z
#739
b1001 Z
#740
b1010 Z
#741
b1011 Z
#742
b0 Z
#743
b1 Z
#744
b10 Z
0a&
#745
b11 Z
#746
b100 Z
#747
b101 Z
b1110 g
#748
b110 Z
#749
b111 Z
#750
b1000 Z
#751
b1001 Z
#752
b1010 Z
#753
b1011 Z
#754
b0 Z
#755
b1 Z
#756
b10 Z
1a&
#757
b11 Z
#758
b100 Z
#759
b101 Z
#760
b110 Z
#761
b111 Z
#762
b1000 Z
#763
b1001 Z
#764
b1010 Z
#765
b1011 Z
#766
b0 Z
#767
b1 Z
#768
b10 Z
0a&
#769
b11 Z
#770
b100 Z
#771
b101 Z
b1111 g
#772
b110 Z
#773
b111 Z
#774
b1000 Z
#775
b1001 Z
#776
b1010 Z
#777
b1011 Z
#778
b0 Z
#779
b1 Z
#780
b10 Z
1a&
#781
b11 Z
#782
b100 Z
#783
b101 Z
#784
b110 Z
#785
b111 Z
#786
b1000 Z
#787
b1001 Z
#788
b1010 Z
#789
b1011 Z
#790
b0 Z
#791
b1 Z
#792
b10 Z
0a&
#793
b11 Z
#794
b100 Z
#795
b101 Z
b10000 g
#796
b110 Z
#797
b111 Z
#798
b1000 Z
#799
b1001 Z
#800
b1010 Z
#801
b1011 Z
#802
b0 Z
#803
b1 Z
#804
b10 Z
1a&
#805
b11 Z
#806
b100 Z
#807
b101 Z
#808
b110 Z
#809
b111 Z
#810
b1000 Z
#811
b1001 Z
#812
b1010 Z
#813
b1011 Z
#814
b0 Z
#815
b1 Z
#816
b10 Z
0a&
#817
b11 Z
#818
b100 Z
#819
b101 Z
b10001 g
#820
b110 Z
#821
b111 Z
#822
b1000 Z
#823
b1001 Z
#824
b1010 Z
#825
b1011 Z
#826
b0 Z
#827
b1 Z
#828
b10 Z
1a&
#829
b11 Z
#830
b100 Z
#831
b101 Z
#832
b110 Z
#833
b111 Z
#834
b1000 Z
#835
b1001 Z
#836
b1010 Z
#837
b1011 Z
#838
b0 Z
#839
b1 Z
#840
b10 Z
0a&
#841
b11 Z
#842
b100 Z
#843
b101 Z
b10010 g
#844
b110 Z
#845
b111 Z
#846
b1000 Z
#847
b1001 Z
#848
b1010 Z
#849
b1011 Z
#850
b0 Z
#851
b1 Z
#852
b10 Z
1a&
#853
b11 Z
#854
b100 Z
#855
b101 Z
#856
b110 Z
#857
b111 Z
#858
b1000 Z
#859
b1001 Z
#860
b1010 Z
#861
b1011 Z
#862
b0 Z
#863
b1 Z
#864
b10 Z
0a&
#865
b11 Z
#866
b100 Z
#867
b101 Z
b10011 g
#868
b110 Z
#869
b111 Z
#870
b1000 Z
#871
b1001 Z
#872
b1010 Z
#873
b1011 Z
#874
b0 Z
#875
b1 Z
#876
b10 Z
1a&
#877
b11 Z
#878
b100 Z
#879
b101 Z
1b&
#880
b110 Z
#881
b111 Z
#882
b1000 Z
#883
b1001 Z
#884
b1010 Z
#885
b1011 Z
#886
b0 Z
#887
b1 Z
#888
b10 Z
0a&
#889
b11 Z
#890
b100 Z
#891
b101 Z
b10100 g
#892
b110 Z
#893
b111 Z
#894
b1000 Z
#895
b1001 Z
#896
b1010 Z
#897
b1011 Z
#898
b0 Z
#899
b1 Z
#900
b10 Z
1a&
#901
b11 Z
#902
b100 Z
#903
b101 Z
#904
b110 Z
0b&
#905
b111 Z
#906
b1000 Z
#907
b1001 Z
#908
b1010 Z
#909
b1011 Z
#910
b0 Z
#911
b1 Z
#912
b10 Z
0a&
#913
b11 Z
#914
b100 Z
#915
b101 Z
b10101 g
#916
b110 Z
#917
b111 Z
#918
b1000 Z
#919
b1001 Z
#920
b1010 Z
#921
b1011 Z
#922
b0 Z
#923
b1 Z
#924
b10 Z
1a&
#925
b11 Z
#926
b100 Z
#927
b101 Z
#928
b110 Z
#929
b111 Z
#930
b1000 Z
#931
b1001 Z
#932
b1010 Z
#933
b1011 Z
#934
b0 Z
#935
b1 Z
#936
b10 Z
0a&
#937
b11 Z
#938
b100 Z
#939
b101 Z
b10110 g
#940
b110 Z
#941
b111 Z
#942
b1000 Z
#943
b1001 Z
#944
b1010 Z
#945
b1011 Z
#946
b0 Z
#947
b1 Z
#948
b10 Z
1a&
#949
b11 Z
#950
b100 Z
#951
b101 Z
1b&
#952
b110 Z
#953
b111 Z
#954
b1000 Z
#955
b1001 Z
#956
b1010 Z
#957
b1011 Z
#958
b0 Z
#959
b1 Z
#960
b10 Z
0a&
#961
b11 Z
#962
b100 Z
#963
b101 Z
b10111 g
#964
b110 Z
#965
b111 Z
#966
b1000 Z
#967
b1001 Z
#968
b1010 Z
#969
b1011 Z
#970
b0 Z
#971
b1 Z
#972
b10 Z
1a&
#973
b11 Z
#974
b100 Z
#975
b101 Z
#976
b110 Z
0b&
#977
b111 Z
#978
b1000 Z
#979
b1001 Z
#980
b1010 Z
#981
b1011 Z
#982
b0 Z
#983
b1 Z
#984
b10 Z
0a&
#985
b11 Z
#986
b100 Z
#987
b101 Z
b11000 g
#988
b100 G
b110 Z
#989
b1 2
b0 Z
b0 g
#990
b10 2
#991
b11 2
1Y&
#992
b100 2
0Y&
#993
b101 2
#994
b110 2
#995
b111 2
#996
b1000 2
#997
b1001 2
#998
b1010 2
#999
b1011 2
#1000
b1100 2
b0 G
#1001
b0 2
b1 J
1V&
#1002
b10 J
#1003
b11 J
#1004
b100 J
#1005
b101 J
#1006
b110 J
#1007
b111 J
#1008
b1000 J
#1009
b1001 J
#1010
b1010 J
#1011
b1011 J
#1012
b1100 J
#1013
b1101 J
#1014
b1110 J
#1015
b1111 J
#1016
b10000 J
#1017
b10001 J
#1018
b10010 J
#1019
b10011 J
#1020
b10100 J
#1021
b10101 J
#1022
b10110 J
#1023
b10111 J
#1024
b11000 J
1b&
#1025
b11001 J
#1026
b11010 J
#1027
b11011 J
#1028
b11100 J
#1029
b11101 J
#1030
b11110 J
#1031
b11111 J
#1032
b100000 J
#1033
b100001 J
#1034
b100010 J
#1035
b100011 J
#1036
b100100 J
#1037
b100101 J
#1038
b100110 J
#1039
b100111 J
#1040
b101000 J
#1041
b101001 J
#1042
b101010 J
#1043
b101011 J
#1044
b101100 J
#1045
b101101 J
#1046
b101110 J
#1047
b101111 J
#1048
b110000 J
#1049
b110001 J
#1050
b110010 J
#1051
b110011 J
#1052
b110100 J
#1053
b110101 J
#1054
b110110 J
#1055
b110111 J
#1056
b111000 J
#1057
b111001 J
#1058
b111010 J
#1059
b111011 J
#1060
b111100 J
#1061
b111101 J
#1062
b111110 J
#1063
b111111 J
#1064
b1000000 J
#1065
b1000001 J
#1066
b1000010 J
#1067
b1000011 J
#1068
b1000100 J
#1069
b1000101 J
#1070
b1000110 J
#1071
b1000111 J
#1072
b1001000 J
#1073
b1001001 J
#1074
b1001010 J
#1075
b1001011 J
#1076
b1001100 J
#1077
b1001101 J
#1078
b1001110 J
#1079
b1001111 J
#1080
b1010000 J
#1081
b1010001 J
#1082
b1010010 J
#1083
b1010011 J
#1084
b1010100 J
#1085
b1010101 J
#1086
b1010110 J
#1087
b1010111 J
#1088
b1011000 J
#1089
b1011001 J
#1090
b1011010 J
#1091
b1011011 J
#1092
b1011100 J
#1093
b1011101 J
#1094
b1011110 J
#1095
b1011111 J
#1096
b1100000 J
#1097
b1100001 J
#1098
b1100010 J
#1099
b1100011 J
#1100
b1100100 J
#1101
b1 G
b1100101 J
#1102
b1 "
b0 J
0V&
#1103
b10 "
#1104
b11 "
#1105
b100 "
#1106
b101 "
#1107
b110 "
#1108
b111 "
#1109
b1000 "
#1110
b1001 "
#1111
b1010 "
#1112
b1011 "
#1113
b1100 "
#1114
b1101 "
b11 G
#1115
b0 "
b1 Z
#1116
b10 Z
1a&
#1117
b11 Z
#1118
b100 Z
#1119
b101 Z
#1120
b110 Z
#1121
b111 Z
#1122
b1000 Z
#1123
b1001 Z
#1124
b1010 Z
#1125
b1011 Z
#1126
b0 Z
#1127
b1 Z
#1128
b10 Z
0a&
#1129
b11 Z
#1130
b100 Z
#1131
b101 Z
b1 g
#1132
b110 Z
#1133
b111 Z
#1134
b1000 Z
#1135
b1001 Z
#1136
b1010 Z
#1137
b1011 Z
#1138
b0 Z
#1139
b1 Z
#1140
b10 Z
1a&
#1141
b11 Z
#1142
b100 Z
#1143
b101 Z
#1144
b110 Z
0b&
#1145
b111 Z
#1146
b1000 Z
#1147
b1001 Z
#1148
b1010 Z
#1149
b1011 Z
#1150
b0 Z
#1151
b1 Z
#1152
b10 Z
0a&
#1153
b11 Z
#1154
b100 Z
#1155
b101 Z
b10 g
#1156
b110 Z
#1157
b111 Z
#1158
b1000 Z
#1159
b1001 Z
#1160
b1010 Z
#1161
b1011 Z
#1162
b0 Z
#1163
b1 Z
#1164
b10 Z
1a&
#1165
b11 Z
#1166
b100 Z
#1167
b101 Z
1b&
#1168
b110 Z
#1169
b111 Z
#1170
b1000 Z
#1171
b1001 Z
#1172
b1010 Z
#1173
b1011 Z
#1174
b0 Z
#1175
b1 Z
#1176
b10 Z
0a&
#1177
b11 Z
#1178
b100 Z
#1179
b101 Z
b11 g
#1180
b110 Z
#1181
b111 Z
#1182
b1000 Z
#1183
b1001 Z
#1184
b1010 Z
#1185
b1011 Z
#1186
b0 Z
#1187
b1 Z
#1188
b10 Z
1a&
#1189
b11 Z
#1190
b100 Z
#1191
b101 Z
#1192
b110 Z
#1193
b111 Z
#1194
b1000 Z
#1195
b1001 Z
#1196
b1010 Z
#1197
b1011 Z
#1198
b0 Z
#1199
b1 Z
#1200
b10 Z
0a&
#1201
b11 Z
#1202
b100 Z
#1203
b101 Z
b100 g
#1204
b110 Z
#1205
b111 Z
#1206
b1000 Z
#1207
b1001 Z
#1208
b1010 Z
#1209
b1011 Z
#1210
b0 Z
#1211
b1 Z
#1212
b10 Z
1a&
#1213
b11 Z
#1214
b100 Z
#1215
b101 Z
#1216
b110 Z
#1217
b111 Z
#1218
b1000 Z
#1219
b1001 Z
#1220
b1010 Z
#1221
b1011 Z
#1222
b0 Z
#1223
b1 Z
#1224
b10 Z
0a&
#1225
b11 Z
#1226
b100 Z
#1227
b101 Z
b101 g
#1228
b110 Z
#1229
b111 Z
#1230
b1000 Z
#1231
b1001 Z
#1232
b1010 Z
#1233
b1011 Z
#1234
b0 Z
#1235
b1 Z
#1236
b10 Z
1a&
#1237
b11 Z
#1238
b100 Z
#1239
b101 Z
#1240
b110 Z
#1241
b111 Z
#1242
b1000 Z
#1243
b1001 Z
#1244
b1010 Z
#1245
b1011 Z
#1246
b0 Z
#1247
b1 Z
#1248
b10 Z
0a&
#1249
b11 Z
#1250
b100 Z
#1251
b101 Z
b110 g
#1252
b110 Z
#1253
b111 Z
#1254
b1000 Z
#1255
b1001 Z
#1256
b1010 Z
#1257
b1011 Z
#1258
b0 Z
#1259
b1 Z
#1260
b10 Z
1a&
#1261
b11 Z
#1262
b100 Z
#1263
b101 Z
#1264
b110 Z
0b&
#1265
b111 Z
#1266
b1000 Z
#1267
b1001 Z
#1268
b1010 Z
#1269
b1011 Z
#1270
b0 Z
#1271
b1 Z
#1272
b10 Z
0a&
#1273
b11 Z
#1274
b100 Z
#1275
b101 Z
b111 g
#1276
b110 Z
#1277
b111 Z
#1278
b1000 Z
#1279
b1001 Z
#1280
b1010 Z
#1281
b1011 Z
#1282
b0 Z
#1283
b1 Z
#1284
b10 Z
1a&
#1285
b11 Z
#1286
b100 Z
#1287
b101 Z
#1288
b110 Z
#1289
b111 Z
#1290
b1000 Z
#1291
b1001 Z
#1292
b1010 Z
#1293
b1011 Z
#1294
b0 Z
#1295
b1 Z
#1296
b10 Z
0a&
#1297
b11 Z
#1298
b100 Z
#1299
b101 Z
b1000 g
#1300
b110 Z
#1301
b111 Z
#1302
b1000 Z
#1303
b1001 Z
#1304
b1010 Z
#1305
b1011 Z
#1306
b0 Z
#1307
b1 Z
#1308
b10 Z
1a&
#1309
b11 Z
#1310
b100 Z
#1311
b101 Z
1b&
#1312
b110 Z
#1313
b111 Z
#1314
b1000 Z
#1315
b1001 Z
#1316
b1010 Z
#1317
b1011 Z
#1318
b0 Z
#1319
b1 Z
#1320
b10 Z
0a&
#1321
b11 Z
#1322
b100 Z
#1323
b101 Z
b1001 g
#1324
b110 Z
#1325
b111 Z
#1326
b1000 Z
#1327
b1001 Z
#1328
b1010 Z
#1329
b1011 Z
#1330
b0 Z
#1331
b1 Z
#1332
b10 Z
1a&
