XDMA_SSI/.Xil/Vivado-5296-DESKTOP-VQGIJDC/hw_ila_data_2/zip_work/waveform.vcd
$date
        2025-Sep-28 09:48:11
$end
$version
        Vivado v2022.1 (64-bit)
$end
$timescale
        1ps
$end
$scope module dut $end
$var reg 16 " SSI_interface_ins/rate_cnt [15:0] $end
$var reg 3 2 SSI_interface_ins/rx_state [2:0] $end
$var reg 6 5 SSI_interface_ins/bit_cnt [5:0] $end
$var reg 21 ; SSI_interface_ins/nop_cnt [20:0] $end
$var reg 13 P SSI_interface_ins/scl_cnt [12:0] $end
$var reg 16 ] SSI_interface_ins/rev_cnt [15:0] $end
$var reg 12 m addr_b [11:0] $end
$var reg 29 y addr_s [28:0] $end
$var reg 3 8" irq_ack [2:0] $end
$var reg 8 ;" wen_b [7:0] $end
$var reg 24 C" data_out [23:0] $end
$var reg 8 [" wen_s [7:0] $end
$var reg 64 c" din_s [63:0] $end
$var reg 64 E# din_reg [63:0] $end
$var reg 64 '$ dout_b [63:0] $end
$var reg 64 g$ dout_s [63:0] $end
$var reg 32 I% data_all [31:0] $end
$var reg 4 i% reg_cnt [3:0] $end
$var reg 64 m% din_b [63:0] $end
$var reg 3 O& irq_state0 [2:0] $end
$var reg 3 R& single_sample [2:0] $end
$var reg 3 U& irq_state1 [2:0] $end
$var reg 1 X& clear_int_en $end
$var reg 1 Y& cs_1 $end
$var reg 1 Z& data_acq_en $end
$var reg 1 [& data_flag $end
$var reg 1 \& en_b $end
$var reg 1 ]& en_s $end
$var reg 1 ^& en_s1 $end
$var reg 1 _& ping_pang_sel $end
$var reg 1 `& r_rst $end
$var reg 1 a& req_0 $end
$var reg 1 b& req_1 $end
$var reg 1 c& sclk1 $end
$var reg 1 d& sda1 $end
$var reg 1 e& nolabel_line83/stat_data $end
$var reg 1 f& nolabel_line83/stop_data $end
$var reg 1 g& usr_irq_ack $end
$var reg 1 h& usr_irq_req $end
$var reg 1 i& _TRIGGER $end
$var reg 1 j& _WINDOW $end
$var reg 1 k& _GAP $end
$upscope $end
$enddefinitions $end
#0
$dumpvars
b0 "
b11 2
b10000 5
b0 ;
b0 P
b0 ]
b0 m
b100000000 y
b0 8"
b0 ;"
b110001001111000000100000 C"
b11111111 ["
b10000000000000001111000011000100100000000000000011110000110001 c"
b11000100111100000000000010000000110001001111000000000000100000 E#
b1 '$
b1110000000000110010010011000100011100000000001100100100110001 g$
b110001001111000000000000100000 I%
b1 i%
b1111010 m%
b10 O&
b0 R&
b0 U&
0X&
0Y&
1Z&
0[&
0\&
0]&
0^&
1_&
0`&
1a&
0b&
1c&
0d&
0e&
0f&
0g&
0h&
0i&
1j&
0k&
$end
#1
b1 P
#2
b10 P
0c&
#3
b11 P
#4
b100 P
#5
b10001 5
b101 P
#6
b110 P
#7
b111 P
#8
b1000 P
#9
b1001 P
#10
b1010 P
#11
b1011 P
#12
b0 P
#13
b1 P
#14
b10 P
1c&
#15
b11 P
#16
b100 P
#17
b101 P
#18
b110 P
#19
b111 P
#20
b1000 P
#21
b1001 P
#22
b1010 P
#23
b1011 P
#24
b0 P
#25
b1 P
#26
b10 P
0c&
#27
b11 P
#28
b100 P
#29
b10010 5
b101 P
#30
b110 P
#31
b111 P
#32
b1000 P
#33
b1001 P
#34
b1010 P
#35
b1011 P
#36
b0 P
#37
b1 P
#38
b10 P
1c&
#39
b11 P
#40
b100 P
#41
b101 P
1d&
#42
b110 P
#43
b111 P
#44
b1000 P
#45
b1001 P
#46
b1010 P
#47
b1011 P
#48
b0 P
#49
b1 P
#50
b10 P
0c&
#51
b11 P
#52
b100 P
#53
b10011 5
b101 P
#54
b110 P
#55
b111 P
#56
b1000 P
#57
b1001 P
#58
b1010 P
#59
b1011 P
#60
b0 P
#61
b1 P
#62
b10 P
1c&
#63
b11 P
#64
b100 P
#65
b101 P
#66
b110 P
0d&
#67
b111 P
#68
b1000 P
#69
b1001 P
#70
b1010 P
#71
b1011 P
#72
b0 P
#73
b1 P
#74
b10 P
0c&
#75
b11 P
#76
b100 P
#77
b10100 5
b101 P
#78
b110 P
#79
b111 P
#80
b1000 P
#81
b1001 P
#82
b1010 P
#83
b1011 P
#84
b0 P
#85
b1 P
#86
b10 P
1c&
#87
b11 P
#88
b100 P
#89
b101 P
#90
b110 P
#91
b111 P
#92
b1000 P
#93
b1001 P
#94
b1010 P
#95
b1011 P
#96
b0 P
#97
b1 P
#98
b10 P
0c&
#99
b11 P
#100
b100 P
#101
b10101 5
b101 P
#102
b110 P
#103
b111 P
#104
b1000 P
#105
b1001 P
#106
b1010 P
#107
b1011 P
#108
b0 P
#109
b1 P
#110
b10 P
1c&
#111
b11 P
#112
b100 P
#113
b101 P
#114
b110 P
#115
b111 P
#116
b1000 P
#117
b1001 P
#118
b1010 P
#119
b1011 P
#120
b0 P
#121
b1 P
#122
b10 P
0c&
#123
b11 P
#124
b100 P
#125
b10110 5
b101 P
#126
b110 P
#127
b111 P
#128
b1000 P
#129
b1001 P
#130
b1010 P
#131
b1011 P
#132
b0 P
#133
b1 P
#134
b10 P
1c&
#135
b11 P
#136
b100 P
#137
b101 P
#138
b110 P
#139
b111 P
#140
b1000 P
#141
b1001 P
#142
b1010 P
#143
b1011 P
#144
b0 P
#145
b1 P
#146
b10 P
0c&
#147
b11 P
#148
b100 P
#149
b10111 5
b101 P
#150
b110 P
#151
b111 P
#152
b1000 P
#153
b1001 P
#154
b1010 P
#155
b1011 P
#156
b0 P
#157
b1 P
#158
b10 P
1c&
#159
b11 P
#160
b100 P
#161
b101 P
#162
b110 P
#163
b111 P
#164
b1000 P
#165
b1001 P
#166
b1010 P
#167
b1011 P
#168
b0 P
#169
b1 P
#170
b10 P
0c&
#171
b11 P
#172
b100 P
#173
b11000 5
b101 P
#174
b100 2
b110 P
#175
b0 5
b1 ;
b0 P
#176
b10 ;
#177
b11 ;
1[&
#178
b100 ;
b0 i%
0[&
#179
b101 ;
#180
b110 ;
#181
b111 ;
#182
b1000 ;
#183
b1001 ;
#184
b1010 ;
#185
b1011 ;
#186
b0 2
b1100 ;
#187
b1 "
b0 ;
1Y&
#188
b10 "
#189
b11 "
#190
b100 "
#191
b101 "
#192
b110 "
#193
b111 "
#194
b1000 "
#195
b1001 "
#196
b1010 "
#197
b1011 "
#198
b1100 "
#199
b1101 "
#200
b1110 "
#201
b1111 "
#202
b10000 "
#203
b10001 "
#204
b10010 "
#205
b10011 "
#206
b10100 "
#207
b10101 "
#208
b10110 "
#209
b10111 "
#210
b11000 "
1d&
#211
b11001 "
#212
b11010 "
#213
b11011 "
#214
b11100 "
#215
b11101 "
#216
b11110 "
#217
b11111 "
#218
b100000 "
#219
b100001 "
#220
b100010 "
#221
b100011 "
#222
b100100 "
#223
b100101 "
#224
b100110 "
#225
b100111 "
#226
b101000 "
#227
b101001 "
#228
b101010 "
#229
b101011 "
#230
b101100 "
#231
b101101 "
#232
b101110 "
#233
b101111 "
#234
b110000 "
#235
b110001 "
#236
b110010 "
#237
b110011 "
#238
b110100 "
#239
b110101 "
#240
b110110 "
#241
b110111 "
#242
b111000 "
#243
b111001 "
#244
b111010 "
#245
b111011 "
#246
b111100 "
#247
b111101 "
#248
b111110 "
#249
b111111 "
#250
b1000000 "
#251
b1000001 "
#252
b1000010 "
#253
b1000011 "
#254
b1000100 "
#255
b1000101 "
#256
b1000110 "
#257
b1000111 "
#258
b1001000 "
#259
b1001001 "
#260
b1001010 "
#261
b1001011 "
#262
b1001100 "
#263
b1001101 "
#264
b1001110 "
#265
b1001111 "
#266
b1010000 "
#267
b1010001 "
#268
b1010010 "
#269
b1010011 "
#270
b1010100 "
#271
b1010101 "
#272
b1010110 "
#273
b1010111 "
#274
b1011000 "
#275
b1011001 "
#276
b1011010 "
#277
b1011011 "
#278
b1011100 "
#279
b1011101 "
#280
b1011110 "
#281
b1011111 "
#282
b1100000 "
#283
b1100001 "
#284
b1100010 "
#285
b1100011 "
#286
b1100100 "
#287
b1100101 "
b1 2
#288
b0 "
b1 ]
0Y&
#289
b10 ]
#290
b11 ]
#291
b100 ]
#292
b101 ]
#293
b110 ]
#294
b111 ]
#295
b1000 ]
#296
b1001 ]
#297
b1010 ]
#298
b1011 ]
#299
b1100 ]
#300
b11 2
b1101 ]
#301
b1 P
b0 ]
#302
b10 P
1c&
#303
b11 P
#304
b100 P
#305
b101 P
#306
b110 P
#307
b111 P
#308
b1000 P
#309
b1001 P
#310
b1010 P
#311
b1011 P
#312
b0 P
#313
b1 P
#314
b10 P
0c&
#315
b11 P
#316
b100 P
#317
b1 5
b101 P
#318
b110 P
#319
b111 P
#320
b1000 P
#321
b1001 P
#322
b1010 P
#323
b1011 P
#324
b0 P
#325
b1 P
#326
b10 P
1c&
#327
b11 P
#328
b100 P
#329
b101 P
#330
b110 P
#331
b111 P
#332
b1000 P
#333
b1001 P
#334
b1010 P
#335
b1011 P
#336
b0 P
#337
b1 P
#338
b10 P
0c&
#339
b11 P
#340
b100 P
#341
b10 5
b101 P
#342
b110 P
#343
b111 P
#344
b1000 P
#345
b1001 P
#346
b1010 P
#347
b1011 P
#348
b0 P
#349
b1 P
#350
b10 P
1c&
#351
b11 P
#352
b100 P
#353
b101 P
#354
b110 P
0d&
#355
b111 P
#356
b1000 P
#357
b1001 P
#358
b1010 P
#359
b1011 P
#360
b0 P
#361
b1 P
#362
b10 P
0c&
#363
b11 P
#364
b100 P
#365
b11 5
b101 P
#366
b110 P
#367
b111 P
#368
b1000 P
#369
b1001 P
#370
b1010 P
#371
b1011 P
#372
b0 P
#373
b1 P
#374
b10 P
1c&
#375
b11 P
#376
b100 P
#377
b101 P
#378
b110 P
#379
b111 P
#380
b1000 P
#381
b1001 P
#382
b1010 P
#383
b1011 P
#384
b0 P
#385
b1 P
#386
b10 P
0c&
#387
b11 P
#388
b100 P
#389
b100 5
b101 P
#390
b110 P
#391
b111 P
#392
b1000 P
#393
b1001 P
#394
b1010 P
#395
b1011 P
#396
b0 P
#397
b1 P
#398
b10 P
1c&
#399
b11 P
#400
b100 P
#401
b101 P
#402
b110 P
#403
b111 P
#404
b1000 P
#405
b1001 P
#406
b1010 P
#407
b1011 P
#408
b0 P
#409
b1 P
#410
b10 P
0c&
#411
b11 P
#412
b100 P
#413
b101 5
b101 P
#414
b110 P
#415
b111 P
#416
b1000 P
#417
b1001 P
#418
b1010 P
#419
b1011 P
#420
b0 P
#421
b1 P
#422
b10 P
1c&
#423
b11 P
#424
b100 P
#425
b101 P
1d&
#426
b110 P
#427
b111 P
#428
b1000 P
#429
b1001 P
#430
b1010 P
#431
b1011 P
#432
b0 P
#433
b1 P
#434
b10 P
0c&
#435
b11 P
#436
b100 P
#437
b110 5
b101 P
#438
b110 P
#439
b111 P
#440
b1000 P
#441
b1001 P
#442
b1010 P
#443
b1011 P
#444
b0 P
#445
b1 P
#446
b10 P
1c&
#447
b11 P
#448
b100 P
#449
b101 P
#450
b110 P
0d&
#451
b111 P
#452
b1000 P
#453
b1001 P
#454
b1010 P
#455
b1011 P
#456
b0 P
#457
b1 P
#458
b10 P
0c&
#459
b11 P
#460
b100 P
#461
b111 5
b101 P
#462
b110 P
#463
b111 P
#464
b1000 P
#465
b1001 P
#466
b1010 P
#467
b1011 P
#468
b0 P
#469
b1 P
#470
b10 P
1c&
#471
b11 P
#472
b100 P
#473
b101 P
#474
b110 P
#475
b111 P
#476
b1000 P
#477
b1001 P
#478
b1010 P
#479
b1011 P
#480
b0 P
#481
b1 P
#482
b10 P
0c&
#483
b11 P
#484
b100 P
#485
b1000 5
b101 P
#486
b110 P
#487
b111 P
#488
b1000 P
#489
b1001 P
#490
b1010 P
#491
b1011 P
#492
b0 P
#493
b1 P
#494
b10 P
1c&
#495
b11 P
#496
b100 P
#497
b101 P
1d&
#498
b110 P
#499
b111 P
#500
b1000 P
#501
b1001 P
#502
b1010 P
#503
b1011 P
#504
b0 P
#505
b1 P
#506
b10 P
0c&
#507
b11 P
#508
b100 P
#509
b1001 5
b101 P
#510
b110 P
#511
b111 P
#512
b1000 P
#513
b1001 P
#514
b1010 P
#515
b1011 P
#516
b0 P
#517
b1 P
#518
b10 P
1c&
#519
b11 P
#520
b100 P
#521
b101 P
#522
b110 P
#523
b111 P
#524
b1000 P
#525
b1001 P
#526
b1010 P
#527
b1011 P
#528
b0 P
#529
b1 P
#530
b10 P
0c&
#531
b11 P
#532
b100 P
#533
b1010 5
b101 P
#534
b110 P
#535
b111 P
#536
b1000 P
#537
b1001 P
#538
b1010 P
#539
b1011 P
#540
b0 P
#541
b1 P
#542
b10 P
1c&
#543
b11 P
#544
b100 P
#545
b101 P
#546
b110 P
#547
b111 P
#548
b1000 P
#549
b1001 P
#550
b1010 P
#551
b1011 P
#552
b0 P
#553
b1 P
#554
b10 P
0c&
#555
b11 P
#556
b100 P
#557
b1011 5
b101 P
#558
b110 P
#559
b111 P
#560
b1000 P
#561
b1001 P
#562
b1010 P
#563
b1011 P
#564
b0 P
#565
b1 P
#566
b10 P
1c&
#567
b11 P
#568
b100 P
#569
b101 P
#570
b110 P
#571
b111 P
#572
b1000 P
#573
b1001 P
#574
b1010 P
#575
b1011 P
#576
b0 P
#577
b1 P
#578
b10 P
0c&
#579
b11 P
#580
b100 P
#581
b1100 5
b101 P
#582
b110 P
#583
b111 P
#584
b1000 P
#585
b1001 P
#586
b1010 P
#587
b1011 P
#588
b0 P
#589
b1 P
#590
b10 P
1c&
#591
b11 P
#592
b100 P
#593
b101 P
#594
b110 P
0d&
#595
b111 P
#596
b1000 P
#597
b1001 P
#598
b1010 P
#599
b1011 P
#600
b0 P
#601
b1 P
#602
b10 P
0c&
#603
b11 P
#604
b100 P
#605
b1101 5
b101 P
#606
b110 P
#607
b111 P
#608
b1000 P
#609
b1001 P
#610
b1010 P
#611
b1011 P
#612
b0 P
#613
b1 P
#614
b10 P
1c&
#615
b11 P
#616
b100 P
#617
b101 P
#618
b110 P
#619
b111 P
#620
b1000 P
#621
b1001 P
#622
b1010 P
#623
b1011 P
#624
b0 P
#625
b1 P
#626
b10 P
0c&
#627
b11 P
#628
b100 P
#629
b1110 5
b101 P
#630
b110 P
#631
b111 P
#632
b1000 P
#633
b1001 P
#634
b1010 P
#635
b1011 P
#636
b0 P
#637
b1 P
#638
b10 P
1c&
#639
b11 P
#640
b100 P
#641
b101 P
#642
b110 P
#643
b111 P
#644
b1000 P
#645
b1001 P
#646
b1010 P
#647
b1011 P
#648
b0 P
#649
b1 P
#650
b10 P
0c&
#651
b11 P
#652
b100 P
#653
b1111 5
b101 P
#654
b110 P
#655
b111 P
#656
b1000 P
#657
b1001 P
#658
b1010 P
#659
b1011 P
#660
b0 P
#661
b1 P
#662
b10 P
1c&
#663
b11 P
#664
b100 P
#665
b101 P
#666
b110 P
#667
b111 P
#668
b1000 P
#669
b1001 P
#670
b1010 P
#671
b1011 P
#672
b0 P
#673
b1 P
#674
b10 P
0c&
#675
b11 P
#676
b100 P
#677
b10000 5
b101 P
#678
b110 P
#679
b111 P
#680
b1000 P
#681
b1001 P
#682
b1010 P
#683
b1011 P
#684
b0 P
#685
b1 P
#686
b10 P
1c&
#687
b11 P
#688
b100 P
#689
b101 P
#690
b110 P
#691
b111 P
#692
b1000 P
#693
b1001 P
#694
b1010 P
#695
b1011 P
#696
b0 P
#697
b1 P
#698
b10 P
0c&
#699
b11 P
#700
b100 P
#701
b10001 5
b101 P
#702
b110 P
#703
b111 P
#704
b1000 P
#705
b1001 P
#706
b1010 P
#707
b1011 P
#708
b0 P
#709
b1 P
#710
b10 P
1c&
#711
b11 P
#712
b100 P
#713
b101 P
#714
b110 P
#715
b111 P
#716
b1000 P
#717
b1001 P
#718
b1010 P
#719
b1011 P
#720
b0 P
#721
b1 P
#722
b10 P
0c&
#723
b11 P
#724
b100 P
#725
b10010 5
b101 P
#726
b110 P
#727
b111 P
#728
b1000 P
#729
b1001 P
#730
b1010 P
#731
b1011 P
#732
b0 P
#733
b1 P
#734
b10 P
1c&
#735
b11 P
#736
b100 P
#737
b101 P
1d&
#738
b110 P
#739
b111 P
#740
b1000 P
#741
b1001 P
#742
b1010 P
#743
b1011 P
#744
b0 P
#745
b1 P
#746
b10 P
0c&
#747
b11 P
#748
b100 P
#749
b10011 5
b101 P
#750
b110 P
#751
b111 P
#752
b1000 P
#753
b1001 P
#754
b1010 P
#755
b1011 P
#756
b0 P
#757
b1 P
#758
b10 P
1c&
#759
b11 P
#760
b100 P
#761
b101 P
#762
b110 P
0d&
#763
b111 P
#764
b1000 P
#765
b1001 P
#766
b1010 P
#767
b1011 P
#768
b0 P
#769
b1 P
#770
b10 P
0c&
#771
b11 P
#772
b100 P
#773
b10100 5
b101 P
#774
b110 P
#775
b111 P
#776
b1000 P
#777
b1001 P
#778
b1010 P
#779
b1011 P
#780
b0 P
#781
b1 P
#782
b10 P
1c&
#783
b11 P
#784
b100 P
#785
b101 P
#786
b110 P
#787
b111 P
#788
b1000 P
#789
b1001 P
#790
b1010 P
#791
b1011 P
#792
b0 P
#793
b1 P
#794
b10 P
0c&
#795
b11 P
#796
b100 P
#797
b10101 5
b101 P
#798
b110 P
#799
b111 P
#800
b1000 P
#801
b1001 P
#802
b1010 P
#803
b1011 P
#804
b0 P
#805
b1 P
#806
b10 P
1c&
#807
b11 P
#808
b100 P
#809
b101 P
#810
b110 P
#811
b111 P
#812
b1000 P
#813
b1001 P
#814
b1010 P
#815
b1011 P
#816
b0 P
#817
b1 P
#818
b10 P
0c&
#819
b11 P
#820
b100 P
#821
b10110 5
b101 P
#822
b110 P
#823
b111 P
#824
b1000 P
#825
b1001 P
#826
b1010 P
#827
b1011 P
#828
b0 P
#829
b1 P
#830
b10 P
1c&
#831
b11 P
#832
b100 P
#833
b101 P
#834
b110 P
#835
b111 P
#836
b1000 P
#837
b1001 P
#838
b1010 P
#839
b1011 P
#840
b0 P
#841
b1 P
#842
b10 P
0c&
#843
b11 P
#844
b100 P
#845
b10111 5
b101 P
#846
b110 P
#847
b111 P
#848
b1000 P
#849
b1001 P
#850
b1010 P
#851
b1011 P
#852
b0 P
#853
b1 P
#854
b10 P
1c&
#855
b11 P
#856
b100 P
#857
b101 P
#858
b110 P
#859
b111 P
#860
b1000 P
#861
b1001 P
#862
b1010 P
#863
b1011 P
#864
b0 P
#865
b1 P
#866
b10 P
0c&
#867
b11 P
#868
b100 P
#869
b11000 5
b101 P
#870
b100 2
b110 P
#871
b0 5
b1 ;
b0 P
#872
b10 ;
#873
b11 ;
1[&
#874
b100 ;
b1 i%
0[&
#875
b101 ;
#876
b110 ;
#877
b111 ;
#878
b1000 ;
#879
b1001 ;
#880
b1010 ;
#881
b1011 ;
#882
b0 2
b1100 ;
#883
b1 "
b0 ;
1Y&
#884
b10 "
#885
b11 "
#886
b100 "
#887
b101 "
#888
b110 "
#889
b111 "
#890
b1000 "
#891
b1001 "
#892
b1010 "
#893
b1011 "
#894
b1100 "
#895
b1101 "
#896
b1110 "
#897
b1111 "
#898
b10000 "
#899
b10001 "
#900
b10010 "
#901
b10011 "
#902
b10100 "
#903
b10101 "
#904
b10110 "
#905
b10111 "
#906
b11000 "
1d&
#907
b11001 "
#908
b11010 "
#909
b11011 "
#910
b11100 "
#911
b11101 "
#912
b11110 "
#913
b11111 "
#914
b100000 "
#915
b100001 "
#916
b100010 "
#917
b100011 "
#918
b100100 "
#919
b100101 "
#920
b100110 "
#921
b100111 "
#922
b101000 "
#923
b101001 "
#924
b101010 "
#925
b101011 "
#926
b101100 "
#927
b101101 "
#928
b101110 "
#929
b101111 "
#930
b110000 "
#931
b110001 "
#932
b110010 "
#933
b110011 "
#934
b110100 "
#935
b110101 "
#936
b110110 "
#937
b110111 "
#938
b111000 "
#939
b111001 "
#940
b111010 "
#941
b111011 "
#942
b111100 "
#943
b111101 "
#944
b111110 "
#945
b111111 "
#946
b1000000 "
#947
b1000001 "
#948
b1000010 "
#949
b1000011 "
#950
b1000100 "
#951
b1000101 "
#952
b1000110 "
#953
b1000111 "
#954
b1001000 "
#955
b1001001 "
#956
b1001010 "
#957
b1001011 "
#958
b1001100 "
#959
b1001101 "
#960
b1001110 "
#961
b1001111 "
#962
b1010000 "
#963
b1010001 "
#964
b1010010 "
#965
b1010011 "
#966
b1010100 "
#967
b1010101 "
#968
b1010110 "
#969
b1010111 "
#970
b1011000 "
#971
b1011001 "
#972
b1011010 "
#973
b1011011 "
#974
b1011100 "
#975
b1011101 "
#976
b1011110 "
#977
b1011111 "
#978
b1100000 "
#979
b1100001 "
#980
b1100010 "
#981
b1100011 "
#982
b1100100 "
#983
b1100101 "
b1 2
#984
b0 "
b1 ]
0Y&
#985
b10 ]
#986
b11 ]
#987
b100 ]
#988
b101 ]
#989
b110 ]
#990
b111 ]
#991
b1000 ]
#992
b1001 ]
#993
b1010 ]
#994
b1011 ]
#995
b1100 ]
#996
b11 2
b1101 ]
#997
b1 P
b0 ]
#998
b10 P
1c&
#999
b11 P
#1000
b100 P
#1001
b101 P
#1002
b110 P
#1003
b111 P
#1004
b1000 P
#1005
b1001 P
#1006
b1010 P
#1007
b1011 P
#1008
b0 P
#1009
b1 P
#1010
b10 P
0c&
#1011
b11 P
#1012
b100 P
#1013
b1 5
b101 P
#1014
b110 P
#1015
b111 P
#1016
b1000 P
#1017
b1001 P
#1018
b1010 P
#1019
b1011 P
#1020
b0 P
#1021
b1 P
#1022
b10 P
1c&
#1023
b11 P
#1024
b100 P
#1025
b101 P
#1026
b110 P
#1027
b111 P
#1028
b1000 P
#1029
b1001 P
#1030
b1010 P
#1031
b1011 P
#1032
b0 P
#1033
b1 P
#1034
b10 P
0c&
#1035
b11 P
#1036
b100 P
#1037
b10 5
b101 P
#1038
b110 P
#1039
b111 P
#1040
b1000 P
#1041
b1001 P
#1042
b1010 P
#1043
b1011 P
#1044
b0 P
#1045
b1 P
#1046
b10 P
1c&
#1047
b11 P
#1048
b100 P
#1049
b101 P
#1050
b110 P
0d&
#1051
b111 P
#1052
b1000 P
#1053
b1001 P
#1054
b1010 P
#1055
b1011 P
#1056
b0 P
#1057
b1 P
#1058
b10 P
0c&
#1059
b11 P
#1060
b100 P
#1061
b11 5
b101 P
#1062
b110 P
#1063
b111 P
#1064
b1000 P
#1065
b1001 P
#1066
b1010 P
#1067
b1011 P
#1068
b0 P
#1069
b1 P
#1070
b10 P
1c&
#1071
b11 P
#1072
b100 P
#1073
b101 P
#1074
b110 P
#1075
b111 P
#1076
b1000 P
#1077
b1001 P
#1078
b1010 P
#1079
b1011 P
#1080
b0 P
#1081
b1 P
#1082
b10 P
0c&
#1083
b11 P
#1084
b100 P
#1085
b100 5
b101 P
#1086
b110 P
#1087
b111 P
#1088
b1000 P
#1089
b1001 P
#1090
b1010 P
#1091
b1011 P
#1092
b0 P
#1093
b1 P
#1094
b10 P
1c&
#1095
b11 P
#1096
b100 P
#1097
b101 P
#1098
b110 P
#1099
b111 P
#1100
b1000 P
#1101
b1001 P
#1102
b1010 P
#1103
b1011 P
#1104
b0 P
#1105
b1 P
#1106
b10 P
0c&
#1107
b11 P
#1108
b100 P
#1109
b101 5
b101 P
#1110
b110 P
#1111
b111 P
#1112
b1000 P
#1113
b1001 P
#1114
b1010 P
#1115
b1011 P
#1116
b0 P
#1117
b1 P
#1118
b10 P
1c&
#1119
b11 P
#1120
b100 P
#1121
b101 P
1d&
#1122
b110 P
#1123
b111 P
#1124
b1000 P
#1125
b1001 P
#1126
b1010 P
#1127
b1011 P
#1128
b0 P
#1129
b1 P
#1130
b10 P
0c&
#1131
b11 P
#1132
b100 P
#1133
b110 5
b101 P
#1134
b110 P
#1135
b111 P
#1136
b1000 P
#1137
b1001 P
#1138
b1010 P
#1139
b1011 P
#1140
b0 P
#1141
b1 P
#1142
b10 P
1c&
#1143
b11 P
#1144
b100 P
#1145
b101 P
#1146
b110 P
0d&
#1147
b111 P
#1148
b1000 P
#1149
b1001 P
#1150
b1010 P
#1151
b1011 P
#1152
b0 P
#1153
b1 P
#1154
b10 P
0c&
#1155
b11 P
#1156
b100 P
#1157
b111 5
b101 P
#1158
b110 P
#1159
b111 P
#1160
b1000 P
#1161
b1001 P
#1162
b1010 P
#1163
b1011 P
#1164
b0 P
#1165
b1 P
#1166
b10 P
1c&
#1167
b11 P
#1168
b100 P
#1169
b101 P
#1170
b110 P
#1171
b111 P
#1172
b1000 P
#1173
b1001 P
#1174
b1010 P
#1175
b1011 P
#1176
b0 P
#1177
b1 P
#1178
b10 P
0c&
#1179
b11 P
#1180
b100 P
#1181
b1000 5
b101 P
#1182
b110 P
#1183
b111 P
#1184
b1000 P
#1185
b1001 P
#1186
b1010 P
#1187
b1011 P
#1188
b0 P
#1189
b1 P
#1190
b10 P
1c&
#1191
b11 P
#1192
b100 P
#1193
b101 P
1d&
#1194
b110 P
#1195
b111 P
#1196
b1000 P
#1197
b1001 P
#1198
b1010 P
#1199
b1011 P
#1200
b0 P
#1201
b1 P
#1202
b10 P
0c&
#1203
b11 P
#1204
b100 P
#1205
b1001 5
b101 P
#1206
b110 P
#1207
b111 P
#1208
b1000 P
#1209
b1001 P
#1210
b1010 P
#1211
b1011 P
#1212
b0 P
#1213
b1 P
#1214
b10 P
1c&
#1215
b11 P
#1216
b100 P
#1217
b101 P
#1218
b110 P
#1219
b111 P
#1220
b1000 P
#1221
b1001 P
#1222
b1010 P
#1223
b1011 P
#1224
b0 P
#1225
b1 P
#1226
b10 P
0c&
#1227
b11 P
#1228
b100 P
#1229
b1010 5
b101 P
#1230
b110 P
#1231
b111 P
#1232
b1000 P
#1233
b1001 P
#1234
b1010 P
#1235
b1011 P
#1236
b0 P
#1237
b1 P
#1238
b10 P
1c&
#1239
b11 P
#1240
b100 P
#1241
b101 P
#1242
b110 P
#1243
b111 P
#1244
b1000 P
#1245
b1001 P
#1246
b1010 P
#1247
b1011 P
#1248
b0 P
#1249
b1 P
#1250
b10 P
0c&
#1251
b11 P
#1252
b100 P
#1253
b1011 5
b101 P
#1254
b110 P
#1255
b111 P
#1256
b1000 P
#1257
b1001 P
#1258
b1010 P
#1259
b1011 P
#1260
b0 P
#1261
b1 P
#1262
b10 P
1c&
#1263
b11 P
#1264
b100 P
#1265
b101 P
#1266
b110 P
#1267
b111 P
#1268
b1000 P
#1269
b1001 P
#1270
b1010 P
#1271
b1011 P
#1272
b0 P
#1273
b1 P
#1274
b10 P
0c&
#1275
b11 P
#1276
b100 P
#1277
b1100 5
b101 P
#1278
b110 P
#1279
b111 P
#1280
b1000 P
#1281
b1001 P
#1282
b1010 P
#1283
b1011 P
#1284
b0 P
#1285
b1 P
#1286
b10 P
1c&
#1287
b11 P
#1288
b100 P
#1289
b101 P
#1290
b110 P
0d&
#1291
b111 P
#1292
b1000 P
#1293
b1001 P
#1294
b1010 P
#1295
b1011 P
#1296
b0 P
#1297
b1 P
#1298
b10 P
0c&
#1299
b11 P
#1300
b100 P
#1301
b1101 5
b101 P
#1302
b110 P
#1303
b111 P
#1304
b1000 P
#1305
b1001 P
#1306
b1010 P
#1307
b1011 P
#1308
b0 P
#1309
b1 P
#1310
b10 P
1c&
#1311
b11 P
#1312
b100 P
#1313
b101 P
#1314
b110 P
#1315
b111 P
#1316
b1000 P
#1317
b1001 P
#1318
b1010 P
#1319
b1011 P
#1320
b0 P
#1321
b1 P
#1322
b10 P
0c&
#1323
b11 P
#1324
b100 P
#1325
b1110 5
b101 P
#1326
b110 P
#1327
b111 P
#1328
b1000 P
#1329
b1001 P
#1330
b1010 P
#1331
b1011 P
#1332
b0 P
#1333
b1 P
#1334
b10 P
1c&
#1335
b11 P
#1336
b100 P
#1337
b101 P
#1338
b110 P
#1339
b111 P
#1340
b1000 P
#1341
b1001 P
#1342
b1010 P
#1343
b1011 P
#1344
b0 P
#1345
b1 P
#1346
b10 P
0c&
#1347
b11 P
#1348
b100 P
#1349
b1111 5
b101 P
#1350
b110 P
#1351
b111 P
#1352
b1000 P
#1353
b1001 P
#1354
b1010 P
#1355
b1011 P
#1356
b0 P
#1357
b1 P
#1358
b10 P
1c&
#1359
b11 P
#1360
b100 P
#1361
b101 P
#1362
b110 P
#1363
b111 P
#1364
b1000 P
#1365
b1001 P
#1366
b1010 P
#1367
b1011 P
#1368
b0 P
#1369
b1 P
#1370
b10 P
0c&
#1371
b11 P
#1372
b100 P
#1373
b10000 5
b101 P
#1374
b110 P
#1375
b111 P
#1376
b1000 P
#1377
b1001 P
#1378
b1010 P
#1379
b1011 P
#1380
b0 P
#1381
b1 P
#1382
b10 P
1c&
#1383
b11 P
#1384
b100 P
#1385
b101 P
#1386
b110 P
#1387
b111 P
#1388
b1000 P
#1389
b1001 P
#1390
b1010 P
#1391
b1011 P
#1392
b0 P
#1393
b1 P
#1394
b10 P
0c&
#1395
b11 P
#1396
b100 P
#1397
b10001 5
b101 P
#1398
b110 P
#1399
b111 P
#1400
b1000 P
#1401
b1001 P
#1402
b1010 P
#1403
b1011 P
#1404
b0 P
#1405
b1 P
#1406
b10 P
1c&
#1407
b11 P
#1408
b100 P
#1409
b101 P
#1410
b110 P
#1411
b111 P
#1412
b1000 P
#1413
b1001 P
#1414
b1010 P
#1415
b1011 P
#1416
b0 P
#1417
b1 P
#1418
b10 P
0c&
#1419
b11 P
#1420
b100 P
#1421
b10010 5
b101 P
#1422
b110 P
#1423
b111 P
#1424
b1000 P
#1425
b1001 P
#1426
b1010 P
#1427
b1011 P
#1428
b0 P
#1429
b1 P
#1430
b10 P
1c&
#1431
b11 P
#1432
b100 P
#1433
b101 P
1d&
#1434
b110 P
#1435
b111 P
#1436
b1000 P
#1437
b1001 P
#1438
b1010 P
#1439
b1011 P
#1440
b0 P
#1441
b1 P
#1442
b10 P
0c&
#1443
b11 P
#1444
b100 P
#1445
b10011 5
b101 P
#1446
b110 P
